Chapter 3 Data Import and Reading | Hello and welcome to our RStudio journey!
…
3.2.1 babynames

There are various data packages available in R, and we can easily access them by installing the appropriate package. For example, we can install a package called babynames .

This package contains baby names in the US from the year 1880 to year 2017.

Let’s take a look.

install.packages("babynames")

library(babynames)
babynames

## # A tibble: 1,924,665 × 5
##     year sex   name          n   prop
##    <dbl> <chr> <chr>     <int>  <dbl>
##  1  1880 F     Mary       7065 0.0724
##  2  1880 F     Anna       2604 0.0267
##  3  1880 F     Emma       2003 0.0205
##  4  1880 F     Elizabeth  1939 0.0199
##  5  1880 F     Minnie     1746 0.0179
##  6  1880 F     Margaret   1578 0.0162
##  7  1880 F     Ida        1472 0.0151
##  8  1880 F     Alice      1414 0.0145
##  9  1880 F     Bertha     1320 0.0135
## 10  1880 F     Sarah      1288 0.0132
## # ℹ 1,924,655 more rows
…
After hitting enter, the Help screen on the right side will display some information. Upon reading the explanation of this dataset, we learn that prop refers to n divided by the total number of babies of that sex with that name born in that year.

3.2.2 starwars

There are also built-in datasets within the dplyr package. For example, there is a dataset called starwars.

We can import it with just a few lines of code, simply by calling the dplyr package where starwars dataset is stored.

install.packages("dplyr")

library(dplyr)

starwars

## # A tibble: 87 × 14
##    name     height  mass hair_color skin_color eye_color birth_year sex   gender
##    <chr>     <int> <dbl> <chr>      <chr>      <chr>          <dbl> <chr> <chr> 
##  1 Luke Sk…    172    77 blond      fair       blue            19   male  mascu…
##  2 C-3PO       167    75 <NA>       gold       yellow         112   none  mascu…
##  3 R2-D2        96    32 <NA>       white, bl… red             33   none  mascu…
##  4 Darth V…    202   136 none       white      yellow          41.9 male  mascu…
##  5 Leia Or…    150    49 brown      light      brown           19   fema… femin…
##  6 Owen La…    178   120 brown, gr… light      blue            52   male  mascu…
##  7 Beru Wh…    165    75 brown      light      blue            47   fema… femin…
##  8 R5-D4        97    32 <NA>       white, red red             NA   none  mascu…
##  9 Biggs D…    183    84 black      light      brown           24   male  mascu…
## 10 Obi-Wan…    182    77 auburn, w… fair       blue-gray       57   male  mascu…
## # ℹ 77 more rows
## # ℹ 5 more variables: homeworld <chr>, species <chr>, films <list>,
## #   vehicles <list>, starships <list>
…
