Chapter 5 Data Cleaning and Transformation | Hello and welcome to our RStudio journey!
…
Note that the spreadsheet is in .csv format. Therefore, when importing data, we should choose From Text(readr) instead of From Text(Excel).

However, as you may notice from the Preview, the data is not ideal – it appears as a single row, with all the information packed into one.

To resolve this, we can click on Delimiter and select Semicolon, telling RStudio that the columns in this dataset are separated by semicolons (;) rather than commas or tabs.

Once the data is properly imported, we can see that it contains information about many superheroes. If we want a clearer view to focus on the data that we need for analysis, we can use select() function to choose specific columns.

heroes |>
  select(c("Name", "Height", "Weight", "Gender", "Eye color", "Hair color", "Strength", "Intelligence"))

## # A tibble: 735 × 8
##    Name       Height Weight Gender `Eye color` `Hair color`
##    <chr>       <dbl>  <dbl> <chr>  <chr>       <chr>       
##  1 A-Bomb       203.  442.  M      Yellow      No Hair     
##  2 Abraxas       NA    NA   M      Blue        Black       
##  3 Abominati…   203.  442.  M      Green       No Hair     
##  4 Adam Monr…    NA    NA   M      Blue        Blond       
##  5 Agent 13     173.   61.0 F      Blue        Blond       
##  6 Air-Walker   189.  108.  M      Blue        White       
##  7 Agent Bob    178.   81.4 M      Brown       Brown       
##  8 Abe Sapien   191.   65.4 M      Blue        No Hair     
##  9 Abin Sur     186.   90.9 M      Blue        No Hair     
## 10 Angela        NA    NA   F      <NA>        <NA>        
## # ℹ 725 more rows
## # ℹ 2 more variables: Strength <dbl>, Intelligence <chr>

Now, if we want to filter for superheroes with high intelligence, we can use the filter() function.

This function allows us to extract rows that meet specified conditions.

heroes |>
  filter(Intelligence == "high")

## # A tibble: 144 × 12
##    Name      Identity `Birth place` Publisher Height Weight
##    <chr>     <chr>    <chr>         <chr>      <dbl>  <dbl>
##  1 Abraxas   Abraxas  Within Etern… Marvel C…   NA     NA  
##  2 Abe Sapi… Abraham… <NA>          Dark Hor…  191.    65.4
##  3 Angela    <NA>     <NA>          Image Co…   NA     NA  
##  4 Yoda      Yoda     <NA>          George L…   66.3   17.0
##  5 Zatanna   Zatanna… <NA>          DC Comics  170.    57.8
##  6 Yellowja… Hank Pym Elmsford, Ne… Marvel C…  183.    83.7
##  7 X-Man     Nate Gr… American Nor… Marvel C…  176.    61.8
##  8 Wonder W… Diana P… Themyscira    DC Comics  183.    74.7
##  9 Watcher   Uatu     <NA>          Marvel C…   NA     NA  
## 10 Warlock   Adam Wa… The Beehive,… Marvel C…  188.   108. 
## # ℹ 134 more rows
## # ℹ 6 more variables: Gender <chr>,
## #   `First appearance` <dbl>, `Eye color` <chr>,
## #   `Hair color` <chr>, Strength <dbl>, Intelligence <chr>
…
If we want to adjust this filter to include superheroes with either good or high intelligence, there are two ways to do it.

The first method is to use the | operator (which means “or”). The second method is to use the %in% operator, which selects data that fits either of the specified conditions.

# method 1
heroes |>
  select(c("Name", "Gender", "Strength", "Intelligence")) |>
  filter(Gender == "F" & Strength >= 50) |>
  filter(Intelligence == "high" | Intelligence == "good")

## # A tibble: 47 × 4
##    Name         Gender Strength Intelligence
##    <chr>        <chr>     <dbl> <chr>       
##  1 Angela       F           100 high        
##  2 Wonder Girl  F            90 good        
##  3 Wonder Woman F           100 high        
##  4 Valkyrie     F            95 high        
##  5 Vindicator   F            65 good        
##  6 Thor Girl    F            85 good        
##  7 T-X          F            65 good        
##  8 Supergirl    F           100 high        
##  9 Stargirl     F            80 good        
## 10 Spider-Gwen  F            55 good        
## # ℹ 37 more rows

# method 2
heroes |>
  select(c("Name", "Gender", "Strength", "Intelligence")) |>
  filter(Gender == "F" & Strength >= 50) |>
  filter(Intelligence %in% c("high", "good"))

## # A tibble: 47 × 4
##    Name         Gender Strength Intelligence
##    <chr>        <chr>     <dbl> <chr>       
##  1 Angela       F           100 high        
##  2 Wonder Girl  F            90 good        
##  3 Wonder Woman F           100 high        
##  4 Valkyrie     F            95 high        
##  5 Vindicator   F            65 good        
##  6 Thor Girl    F            85 good        
##  7 T-X          F            65 good        
##  8 Supergirl    F           100 high        
##  9 Stargirl     F            80 good        
## 10 Spider-Gwen  F            55 good        
## # ℹ 37 more rows
…
So, we need to :

Add a new column that converts height from centimeters to meters.

Square the height in meters.

Divide weight by the square of the height.

heroes |>
  mutate(Height_m = Height / 100) |> # convert heights from cm to m
  mutate(Height_m2 = Height_m*Height_m) |> # square of the heights
  mutate(BMI = Weight / Height_m2) # divide weights by the squrare of the heights

## # A tibble: 735 × 15
##    Name      Identity `Birth place` Publisher Height Weight
##    <chr>     <chr>    <chr>         <chr>      <dbl>  <dbl>
##  1 A-Bomb    Richard… Scarsdale, A… Marvel C…   203.  442. 
##  2 Abraxas   Abraxas  Within Etern… Marvel C…    NA    NA  
##  3 Abominat… Emil Bl… Zagreb, Yugo… Marvel C…   203.  442. 
##  4 Adam Mon… <NA>     <NA>          NBC - He…    NA    NA  
##  5 Agent 13  Sharon … <NA>          Marvel C…   173.   61.0
##  6 Air-Walk… Gabriel… Xandar, a pl… Marvel C…   189.  108. 
##  7 Agent Bob Bob      <NA>          Marvel C…   178.   81.4
##  8 Abe Sapi… Abraham… <NA>          Dark Hor…   191.   65.4
##  9 Abin Sur  <NA>     Ungara        DC Comics   186.   90.9
## 10 Angela    <NA>     <NA>          Image Co…    NA    NA  
## # ℹ 725 more rows
## # ℹ 9 more variables: Gender <chr>,
## #   `First appearance` <dbl>, `Eye color` <chr>,
## #   `Hair color` <chr>, Strength <dbl>,
## #   Intelligence <chr>, Height_m <dbl>, Height_m2 <dbl>,
## #   BMI <dbl>

We can either break this down into multiple steps or, for simplicity, combine everything into one line of code.

heroes |>
  mutate(BMI = Weight / (Height/100)^2) 

## # A tibble: 735 × 13
##    Name      Identity `Birth place` Publisher Height Weight
##    <chr>     <chr>    <chr>         <chr>      <dbl>  <dbl>
##  1 A-Bomb    Richard… Scarsdale, A… Marvel C…   203.  442. 
##  2 Abraxas   Abraxas  Within Etern… Marvel C…    NA    NA  
##  3 Abominat… Emil Bl… Zagreb, Yugo… Marvel C…   203.  442. 
##  4 Adam Mon… <NA>     <NA>          NBC - He…    NA    NA  
##  5 Agent 13  Sharon … <NA>          Marvel C…   173.   61.0
##  6 Air-Walk… Gabriel… Xandar, a pl… Marvel C…   189.  108. 
##  7 Agent Bob Bob      <NA>          Marvel C…   178.   81.4
##  8 Abe Sapi… Abraham… <NA>          Dark Hor…   191.   65.4
##  9 Abin Sur  <NA>     Ungara        DC Comics   186.   90.9
## 10 Angela    <NA>     <NA>          Image Co…    NA    NA  
## # ℹ 725 more rows
## # ℹ 7 more variables: Gender <chr>,
## #   `First appearance` <dbl>, `Eye color` <chr>,
## #   `Hair color` <chr>, Strength <dbl>,
## #   Intelligence <chr>, BMI <dbl>

Either approach will give the same result, so you can shoose whichever suits you best.

Tip: By default, new columns appear on the right, but if you prefer them on the left (to make it easier to check when there are many columns), you can specify .after = "column_name" in mutate() to position the new column immediately after a chosen column.

heroes |>
  mutate(BMI = Weight / (Height/100)^2, .before = 1) 

## # A tibble: 735 × 13
##      BMI Name       Identity `Birth place` Publisher Height
##    <dbl> <chr>      <chr>    <chr>         <chr>      <dbl>
##  1 107.  A-Bomb     Richard… Scarsdale, A… Marvel C…   203.
##  2  NA   Abraxas    Abraxas  Within Etern… Marvel C…    NA 
##  3 107.  Abominati… Emil Bl… Zagreb, Yugo… Marvel C…   203.
##  4  NA   Adam Monr… <NA>     <NA>          NBC - He…    NA 
##  5  20.3 Agent 13   Sharon … <NA>          Marvel C…   173.
##  6  30.4 Air-Walker Gabriel… Xandar, a pl… Marvel C…   189.
##  7  25.6 Agent Bob  Bob      <NA>          Marvel C…   178.
##  8  17.9 Abe Sapien Abraham… <NA>          Dark Hor…   191.
##  9  26.4 Abin Sur   <NA>     Ungara        DC Comics   186.
## 10  NA   Angela     <NA>     <NA>          Image Co…    NA 
## # ℹ 725 more rows
## # ℹ 7 more variables: Weight <dbl>, Gender <chr>,
## #   `First appearance` <dbl>, `Eye color` <chr>,
## #   `Hair color` <chr>, Strength <dbl>, Intelligence <chr>

If, for example, I want the new BMI column to appear immediately after the Name column, I can write .after = "Name" to achieve that.

heroes |>
  mutate(BMI = Weight / (Height/100)^2, .after = "Name")

## # A tibble: 735 × 13
##    Name         BMI Identity `Birth place` Publisher Height
##    <chr>      <dbl> <chr>    <chr>         <chr>      <dbl>
##  1 A-Bomb     107.  Richard… Scarsdale, A… Marvel C…   203.
##  2 Abraxas     NA   Abraxas  Within Etern… Marvel C…    NA 
##  3 Abominati… 107.  Emil Bl… Zagreb, Yugo… Marvel C…   203.
##  4 Adam Monr…  NA   <NA>     <NA>          NBC - He…    NA 
##  5 Agent 13    20.3 Sharon … <NA>          Marvel C…   173.
##  6 Air-Walker  30.4 Gabriel… Xandar, a pl… Marvel C…   189.
##  7 Agent Bob   25.6 Bob      <NA>          Marvel C…   178.
##  8 Abe Sapien  17.9 Abraham… <NA>          Dark Hor…   191.
##  9 Abin Sur    26.4 <NA>     Ungara        DC Comics   186.
## 10 Angela      NA   <NA>     <NA>          Image Co…    NA 
## # ℹ 725 more rows
## # ℹ 7 more variables: Weight <dbl>, Gender <chr>,
## #   `First appearance` <dbl>, `Eye color` <chr>,
## #   `Hair color` <chr>, Strength <dbl>, Intelligence <chr>

Tip: Instead of using select() to manually keep only the columns you’ve used during mutate() process, you can use .keep = "used". This tells RStudio to retain only the columns involved in the mutation process.

heroes |>
  mutate(BMI = Weight / (Height/100)^2, .keep = "used") 

## # A tibble: 735 × 3
##    Height Weight   BMI
##     <dbl>  <dbl> <dbl>
##  1   203.  442.  107. 
##  2    NA    NA    NA  
##  3   203.  442.  107. 
##  4    NA    NA    NA  
##  5   173.   61.0  20.3
##  6   189.  108.   30.4
##  7   178.   81.4  25.6
##  8   191.   65.4  17.9
##  9   186.   90.9  26.4
## 10    NA    NA    NA  
## # ℹ 725 more rows
…
