Chapter 6 Data Wrangling and Reshaping | Hello and welcome to our RStudio journey!
…
Henry
Eng_C2
80

… and so on

Here’s the code to achieve that:

performance_original |>
  pivot_longer(!Name, names_to = "Subject", values_to = "Score") 

## # A tibble: 36 × 3
##    Name  Subject Score
##    <chr> <chr>   <dbl>
##  1 Kelly Eng_C1     90
##  2 Kelly Eng_C2     95
##  3 Kelly Eng_C3     80
##  4 Kelly Math_C1    90
##  5 Kelly Math_C2    80
##  6 Kelly Math_C3    97
##  7 Liam  Eng_C1     70
##  8 Liam  Eng_C2     80
##  9 Liam  Eng_C3     94
## 10 Liam  Math_C1    80
## # ℹ 26 more rows
…
values_to = "Score": This indicates that the values from the original columns (the actual exam scores) should be placed into a new column named Score.

These two arguments (names_to and values_to) allow us to compress multiple columns into one, transforming the data from a wide to a long format.

There are other ways to achieve the same result. The approach we used works well when the dataset doesn’t have too many columns to exclude (in this case, just the Name column). However, if you have a large dataset with many columns to exclude, or if it’s easier to specify the columns you want to compress directly, you can use a different method like cols =.

For example, you could list out the columns you want to gather explicitly, or use a range of column names depending on the situation. This flexibility allows you to choose the most efficient method based on your dataset’s structure.

performance_original |>
  pivot_longer(cols = c("Eng_C1", "Eng_C2", "Eng_C3", "Math_C1", "Math_C2", "Math_C3"),
               names_to = "Subject", 
               values_to = "Score") -> performance
performance

## # A tibble: 36 × 3
##    Name  Subject Score
##    <chr> <chr>   <dbl>
##  1 Kelly Eng_C1     90
##  2 Kelly Eng_C2     95
##  3 Kelly Eng_C3     80
##  4 Kelly Math_C1    90
##  5 Kelly Math_C2    80
##  6 Kelly Math_C3    97
##  7 Liam  Eng_C1     70
##  8 Liam  Eng_C2     80
##  9 Liam  Eng_C3     94
## 10 Liam  Math_C1    80
## # ℹ 26 more rows

Now, let’s dive a bit deeper into a more abstract concept.

If we want to further split our data, for instance, breaking down the Subject column into two new columns, like Subject_em (for subject name) and Chapter (for chapter number), we can use the separate() function to accomplish this.

performance |>
  separate(
    col = Subject, 
    into = c("Subject_em", "Chapter"),
    sep = "[^[:alnum:]]+",
    remove = TRUE,
    convert = FALSE) -> performance
performance

## # A tibble: 36 × 4
##    Name  Subject_em Chapter Score
##    <chr> <chr>      <chr>   <dbl>
##  1 Kelly Eng        C1         90
##  2 Kelly Eng        C2         95
##  3 Kelly Eng        C3         80
##  4 Kelly Math       C1         90
##  5 Kelly Math       C2         80
##  6 Kelly Math       C3         97
##  7 Liam  Eng        C1         70
##  8 Liam  Eng        C2         80
##  9 Liam  Eng        C3         94
## 10 Liam  Math       C1         80
## # ℹ 26 more rows
…
