Chapter 8 Data Visualization | Hello and welcome to our RStudio journey!
…
            Hello and welcome to our RStudio journey!

Chapter 8 Data Visualization

8.1 bar chart

Let’s use a new dataset as an example here. In the lego_sample dataset, there are various LEGO sets, pieces, recommended retail prices, prices on Amazon, sizes, and more.

library(openintro)
lego_sample

## # A tibble: 75 × 14
##    item_number set_name    theme pieces  price
##          <dbl> <chr>       <chr>  <dbl>  <dbl>
##  1       10859 My First L… DUPL…      6   4.99
##  2       10860 My First R… DUPL…      6   4.99
##  3       10862 My First C… DUPL…     41  15.0 
##  4       10864 Large Play… DUPL…     71  50.0 
##  5       10867 Farmers' M… DUPL…     26  20.0 
##  6       10870 Farm Anima… DUPL…     16   9.99
##  7       10872 Train Brid… DUPL…     26  25.0 
##  8       10875 Cargo Train DUPL…    105 120.  
##  9       10876 Spider-Man… DUPL…     38  30.0 
## 10       10878 Rapunzel's… DUPL…     37  30.0 
## # ℹ 65 more rows
## # ℹ 9 more variables: amazon_price <dbl>,
## #   year <dbl>, ages <chr>, pages <dbl>,
## #   minifigures <dbl>, packaging <chr>,
## #   weight <chr>, unique_pieces <dbl>,
## #   size <chr>
…
In the aes() section, I’ve used both color AND shape to differentiate by theme. Usually, one type of distinction is sufficient, but sometimes colors alone may be hard to differentiate. In such cases, adding another feature (e.g., shape) can improve readability.

geom_point() is used to display individual data point, creating the scatter plot.

geom_smooth() adds trend lines to the data. By setting method = "lm", we apply a linear model, which results in a straight trend line.

Next, let’s try a different dataset: movies. This dataset is part of the openintro package and contains several datasets.

install.packages("openintro")

library("openintro")
movies

## # A tibble: 140 × 5
##    movie         genre score rating box_office
##    <chr>         <chr> <dbl> <chr>       <dbl>
##  1 2Fast2Furious acti…  48.9 PG-13      127.  
##  2 28DaysLater   horr…  78.2 R           45.1 
##  3 AGuyThing     rom-…  39.5 PG-13       15.5 
##  4 AManApart     acti…  42.9 R           26.2 
##  5 AMightyWind   come…  79.9 PG-13       17.8 
##  6 AgentCodyBan… acti…  57.9 PG          47.8 
##  7 Alex&Emma     rom-…  35.1 PG-13       14.2 
##  8 AmericanWedd… come…  50.7 R          104.  
##  9 AngerManagem… come…  62.6 PG-13      134.  
## 10 AnythingElse  rom-…  63.3 R            3.21
## # ℹ 130 more rows
…
8.6 mixed graphs

We will now create mixed graphs using another package: GGally.

install.packages("GGally")

library(GGally)

8.6.1 categorical * numeric

這邊的資料在下面才有介紹，不知道是要把介紹提前還是怎樣：Ｄ

lego_sample

## # A tibble: 75 × 14
##    item_number set_name    theme pieces  price
##          <dbl> <chr>       <chr>  <dbl>  <dbl>
##  1       10859 My First L… DUPL…      6   4.99
##  2       10860 My First R… DUPL…      6   4.99
##  3       10862 My First C… DUPL…     41  15.0 
##  4       10864 Large Play… DUPL…     71  50.0 
##  5       10867 Farmers' M… DUPL…     26  20.0 
##  6       10870 Farm Anima… DUPL…     16   9.99
##  7       10872 Train Brid… DUPL…     26  25.0 
##  8       10875 Cargo Train DUPL…    105 120.  
##  9       10876 Spider-Man… DUPL…     38  30.0 
## 10       10878 Rapunzel's… DUPL…     37  30.0 
## # ℹ 65 more rows
## # ℹ 9 more variables: amazon_price <dbl>,
## #   year <dbl>, ages <chr>, pages <dbl>,
## #   minifigures <dbl>, packaging <chr>,
## #   weight <chr>, unique_pieces <dbl>,
## #   size <chr>
…
